<?xml version="1.0" encoding="UTF-8"?>
<svg width="73px" height="73px" viewBox="0 0 73 73" version="1.1" xmlns="http://www.w3.org/2000/svg" xmlns:xlink="http://www.w3.org/1999/xlink">
    <!-- Generator: Sketch 52.2 (67145) - http://www.bohemiancoding.com/sketch -->
    <title>Artboard Copy 41</title>
    <desc>Created with Sketch.</desc>
    <g id="Artboard-Copy-41" stroke="none" stroke-width="1" fill="none" fill-rule="evenodd">
        <g id="Group-64" transform="translate(3.000000, 4.000000)">
            <g id="Group-41-Copy-5" fill="#F2F3F6" stroke="#D0021B" stroke-width="2">
                <g id="Group-25" transform="translate(0.121951, 0.717391)">
                    <ellipse id="Oval-2" cx="32.2447292" cy="32.3323508" rx="32.2447292" ry="32.3323508"></ellipse>
                </g>
            </g>
            <g id="user-silhouette-2" transform="translate(15.000000, 14.000000)" fill="#A4A4A4">
                <g id="user-silhouette">
                    <path d="M17.3492405,17.5419623 C21.6935243,17.5419623 25.2156663,13.6717418 25.2156663,8.89762462 C25.2156663,2.27723314 21.6936958,0.253367457 17.3492405,0.253367457 C13.0046137,0.253367457 9.48281468,2.27723314 9.48281468,8.89762462 C9.48290042,13.6717418 13.0046994,17.5419623 17.3492405,17.5419623 Z" id="Path"></path>
                    <path d="M34.7432564,30.3653829 L30.7938538,21.9213426 C30.6132107,21.5349493 30.2958694,21.2144803 29.9008779,21.0192994 L23.7716414,17.9910003 C23.636479,17.9243472 23.4728166,17.9373053 23.351307,18.0246102 C21.6177476,19.2690701 19.5794757,19.9268538 17.4570686,19.9268538 C15.3343202,19.9268538 13.2962189,19.2690701 11.5626595,18.0246102 C11.4408086,17.9373053 11.2771462,17.9243472 11.1419838,17.9910003 L5.01317392,21.0192994 C4.6180118,21.2144803 4.30101175,21.5347874 4.12019799,21.9213426 L0.170795451,30.3653829 C-0.101491808,30.9475239 -0.0456861458,31.6135683 0.320122529,32.1475215 C0.685760544,32.6813936 1.30457195,33 1.97551984,33 L32.9383613,33 C33.6093092,33 34.2282913,32.6812317 34.5939293,32.1474405 C34.9595673,31.6135683 35.0155436,30.9472809 34.7432564,30.3653829 Z" id="Path"></path>
                </g>
            </g>
        </g>
    </g>
</svg>