<?xml version="1.0" encoding="UTF-8"?>
<svg width="73px" height="73px" viewBox="0 0 73 73" version="1.1" xmlns="http://www.w3.org/2000/svg" xmlns:xlink="http://www.w3.org/1999/xlink">
    <!-- Generator: Sketch 52.2 (67145) - http://www.bohemiancoding.com/sketch -->
    <title>Artboard Copy 40</title>
    <desc>Created with Sketch.</desc>
    <g id="Artboard-Copy-40" stroke="none" stroke-width="1" fill="none" fill-rule="evenodd">
        <g id="Group-41" transform="translate(3.000000, 4.000000)">
            <g id="Group-25" transform="translate(0.121951, 0.717391)" fill="#F2F3F6" stroke="#D0021B" stroke-width="2">
                <ellipse id="Oval-2" cx="32.2447292" cy="32.3323508" rx="32.2447292" ry="32.3323508"></ellipse>
            </g>
            <g id="delivery-truck" transform="translate(10.853659, 17.347826)" fill="#A4A4A4" fill-rule="nonzero">
                <path d="M45.2173913,16.5879017 L45.2173913,15.0130303 C45.2173913,14.2452751 44.9061154,13.5094458 44.3528673,12.9694004 L35.7680648,4.58998545 C35.2225007,4.05744771 34.4860188,3.75881548 33.7185791,3.75881548 L29.3873146,3.75881548 L29.3873146,2.15609994 C29.3873146,0.965361313 28.4088605,0 27.2018073,0 L2.18550725,0 C0.978454106,-1.0358358e-15 0,0.965288423 0,2.15609994 L0,16.5879017 L45.2173913,16.5879017 Z M31.9830329,5.84913886 C31.9830329,5.67224081 32.1518714,5.52930057 32.3609018,5.52930057 L34.1052133,5.52930057 C34.201739,5.52930057 34.2981017,5.56339641 34.3704145,5.6177841 L41.7896895,11.6131992 C42.0389118,11.8105961 41.8700732,12.1644612 41.5325592,12.1644612 L32.3609833,12.1644612 C32.1520344,12.1644612 31.9831144,12.02159 31.9831144,11.844623 L31.9831144,5.84913886 L31.9830329,5.84913886 Z M45.2173913,17.6937618 L45.2173913,22.2644735 C45.2173913,23.4046736 44.2389372,24.3289225 43.0319579,24.3289225 L40.6935095,24.3289225 C40.2709633,21.5899574 37.7721853,19.4841887 34.7563626,19.4841887 C31.7477067,19.4841887 29.2490026,21.5899574 28.8264564,24.3289225 L16.9738846,24.3289225 C16.5514123,21.5899574 14.0526343,19.4841887 11.0439784,19.4841887 C8.03532253,19.4841887 5.53654447,21.5899574 5.11407218,24.3289225 L2.18550725,24.3289225 C0.978454106,24.3289923 0,23.4047434 0,22.2645433 L0,17.6938316 L45.2173913,17.6938316 L45.2173913,17.6937618 Z M34.7402313,21.0113422 C31.9993015,21.0113422 29.7773065,23.2393123 29.7773065,25.9877127 C29.7773065,28.736113 31.9993824,30.9640832 34.7402313,30.9640832 C37.4810802,30.9640832 39.7030753,28.736113 39.7030753,25.9877127 C39.7030753,23.2393123 37.4811611,21.0113422 34.7402313,21.0113422 Z M34.1887233,28.7523629 C32.9705782,28.7523629 31.9830329,27.7621179 31.9830329,26.5405706 C31.9830329,25.3190233 32.9704344,24.3289225 34.1887233,24.3289225 C35.4068685,24.3289225 36.3944857,25.3190233 36.3944857,26.5405706 C36.3944857,27.7621179 35.4068685,28.7523629 34.1887233,28.7523629 Z M10.4772004,21.0113422 C7.7362483,21.0113422 5.51431601,23.2393123 5.51431601,25.9877127 C5.51431601,28.736113 7.7363292,30.9640832 10.4772004,30.9640832 C13.2180716,30.9640832 15.4400848,28.736113 15.4400848,25.9877127 C15.4400848,23.2393123 13.2180716,21.0113422 10.4772004,21.0113422 Z M11.028668,28.7523629 C9.81052284,28.7523629 8.82290562,27.7621179 8.82290562,26.5405706 C8.82290562,25.3190233 9.81045094,24.3289225 11.028668,24.3289225 C12.2468131,24.3289225 13.2343584,25.3190233 13.2343584,26.5405706 C13.2343584,27.7621179 12.2468131,28.7523629 11.028668,28.7523629 Z" id="Shape"></path>
            </g>
        </g>
    </g>
</svg>