<?xml version="1.0" encoding="UTF-8"?>
<svg width="73px" height="73px" viewBox="0 0 73 73" version="1.1" xmlns="http://www.w3.org/2000/svg" xmlns:xlink="http://www.w3.org/1999/xlink">
    <!-- Generator: Sketch 52.2 (67145) - http://www.bohemiancoding.com/sketch -->
    <title>Artboard Copy 45</title>
    <desc>Created with Sketch.</desc>
    <g id="Artboard-Copy-45" stroke="none" stroke-width="1" fill="none" fill-rule="evenodd">
        <g id="Group-17-Copy-2" transform="translate(3.000000, 4.000000)">
            <g id="Group-26">
                <g id="Group-27">
                    <g id="Group-20" transform="translate(0.268293, 0.072626)">
                        <g id="Group-34" fill="#F2F3F6" stroke="#84D42D" stroke-width="2">
                            <ellipse id="Oval-2" cx="32.2447292" cy="32.1487452" rx="32.2447292" ry="32.1487452"></ellipse>
                        </g>
                        <g id="car-city-model" transform="translate(32.500000, 33.000000) scale(-1, 1) translate(-32.500000, -33.000000) translate(5.000000, 21.000000)" fill="#A4A4A4" fill-rule="nonzero">
                            <g id="Group-39">
                                <path d="M42.4147262,17.9824513 C42.4147262,18.2081213 42.4327327,18.4290403 42.4606139,18.64699 C42.7806658,21.253478 44.9519076,23.2702548 47.5872538,23.2702548 C50.295207,23.2702548 52.5129173,21.1418308 52.7377088,18.4331974 C52.7499068,18.2835426 52.7597814,18.1338878 52.7597814,17.9812636 C52.7597814,15.0600254 50.445068,12.6928663 47.5872538,12.6928663 C44.7311821,12.6946479 42.4147262,15.061807 42.4147262,17.9824513 Z M50.7976479,17.5334869 L49.311236,17.5334869 C49.2699952,17.3677976 49.2055201,17.2122041 49.1236193,17.068488 L50.1790357,15.9894293 C50.5048962,16.4318612 50.7209749,16.9574346 50.7976479,17.5334869 Z M50.177874,19.9926956 L49.1172299,18.9071043 C49.1997116,18.7645759 49.2670909,18.6137334 49.3094934,18.4492318 L50.7959054,18.4492318 C50.7169089,19.0217209 50.5048962,19.5520453 50.177874,19.9926956 Z M48.035675,19.7414893 C48.1948297,19.6993246 48.3458524,19.6369685 48.4840963,19.5544208 L49.5360275,20.6305101 C49.1056128,20.9636703 48.5956207,21.1875586 48.035675,21.2659492 L48.035675,19.7414893 Z M48.035675,14.7013289 C48.6002676,14.7815011 49.1137448,15.0042017 49.5470638,15.3415189 L48.49339,16.4182022 C48.351661,16.3326852 48.1994766,16.2667658 48.0362559,16.2234134 L48.0362559,14.7013289 L48.035675,14.7013289 Z M44.9966336,15.9888354 L46.051469,17.0678941 C45.9689874,17.2116103 45.9050932,17.3672038 45.8650141,17.532893 L44.3774405,17.532893 C44.4541135,16.9574346 44.6701922,16.4318612 44.9966336,15.9888354 Z M47.1399942,16.2240073 C46.9767735,16.2673596 46.8245891,16.3338729 46.6828601,16.4187961 L45.6297672,15.3421128 C46.0630862,15.0059833 46.5771442,14.7832827 47.1411559,14.7031105 L47.1399942,16.2240073 Z M45.6390609,20.6305101 L46.6909921,19.5550146 C46.8286551,19.6387501 46.9814204,19.6987308 47.1394134,19.7408954 L47.1394134,21.2665431 C46.5800485,21.1887464 46.0694756,20.9636703 45.6390609,20.6305101 Z M44.3716319,18.4498257 L45.8696609,18.4498257 C45.9120635,18.6125456 45.974796,18.7669514 46.0561159,18.908292 L44.9995378,19.9891324 C44.6725156,19.5484821 44.4512093,19.0223148 44.3716319,18.4498257 Z" id="Shape"></path>
                                <path d="M5.17252758,17.9824513 C5.17252758,18.2081213 5.18995328,18.4290403 5.21841525,18.64699 C5.53846721,21.253478 7.709709,23.2702548 10.3444743,23.2702548 C13.0524275,23.2702548 15.2701379,21.1418308 15.4949293,18.4331974 C15.5071273,18.2835426 15.5175828,18.1338878 15.5175828,17.9812636 C15.5175828,15.0600254 13.2028694,12.6928663 10.3444743,12.6928663 C7.48840265,12.6946479 5.17252758,15.061807 5.17252758,17.9824513 Z M13.5560302,17.5334869 L12.0690374,17.5334869 C12.0277966,17.3677976 11.9627407,17.2122041 11.8814207,17.068488 L12.9368371,15.9894293 C13.2632785,16.4318612 13.4787763,16.9574346 13.5560302,17.5334869 Z M12.9362562,19.9926956 L11.8756122,18.9071043 C11.9580938,18.7645759 12.0254732,18.6137334 12.0678757,18.4492318 L13.5542876,18.4492318 C13.4747103,19.0217209 13.2632785,19.5520453 12.9362562,19.9926956 Z M10.7934764,19.7414893 C10.9526311,19.6993246 11.1036538,19.6369685 11.2418977,19.5544208 L12.2938289,20.6305101 C11.8634142,20.9636703 11.3534221,21.1875586 10.7934764,21.2659492 L10.7934764,19.7414893 Z M10.7934764,14.7013289 C11.3574881,14.7815011 11.8715462,15.0042017 12.3042843,15.3415189 L11.2511914,16.4182022 C11.1094624,16.3326852 10.957278,16.2667658 10.7940573,16.2234134 L10.7940573,14.7013289 L10.7934764,14.7013289 Z M7.75443495,15.9888354 L8.8098513,17.0678941 C8.72736967,17.2116103 8.66347545,17.3672038 8.62281549,17.532893 L7.13582272,17.532893 C7.21191493,16.9574346 7.42799357,16.4318612 7.75443495,15.9888354 Z M9.89779562,16.2240073 C9.73457493,16.2673596 9.58239052,16.3338729 9.44066152,16.4187961 L8.38698773,15.3415189 C8.81972587,15.0053895 9.33436477,14.7826889 9.89837648,14.7025166 L9.89779562,16.2240073 Z M8.3968623,20.6305101 L9.44821265,19.5550146 C9.58645651,19.6387501 9.73864093,19.6987308 9.89721477,19.7408954 L9.89721477,21.2665431 C9.33726905,21.1887464 8.827277,20.9636703 8.3968623,20.6305101 Z M7.13001416,18.4498257 L8.6280432,18.4498257 C8.66986487,18.6125456 8.73317824,18.7669514 8.81449816,18.908292 L7.75792009,19.9891324 C7.43089785,19.5484821 7.20901065,19.0223148 7.13001416,18.4498257 Z" id="Shape"></path>
                                <path d="M0.0242017527,14.750454 L0.5866285,17.833044 C0.713771368,18.5306917 1.31506275,19.0387368 2.01518133,19.0387368 L4.85507552,19.0387368 C4.77790147,18.756302 4.71460764,18.4671158 4.67796384,18.1694903 C4.64243046,17.8881807 4.62466377,17.632189 4.62466377,17.3897002 C4.62466377,13.9762901 7.36573075,11.1992022 10.7330735,11.1992022 C14.1015267,11.1992022 16.8425937,13.9762901 16.8425937,17.3897002 C16.8425937,17.5669252 16.8309343,17.7418997 16.8164989,17.9174369 C16.7842967,18.302831 16.7154508,18.6769727 16.6160684,19.0381741 L41.4594516,19.0381741 C41.3817224,18.7557394 41.3189838,18.4671158 41.2817848,18.1700529 C41.2462514,17.8876181 41.2290399,17.6327516 41.2290399,17.3897002 C41.2290399,13.9768527 43.9695517,11.1992022 47.3374496,11.1992022 C50.7053476,11.1992022 53.4464146,13.9768527 53.4464146,17.3897002 C53.4464146,17.5663626 53.4347552,17.7418997 53.420875,17.9174369 C53.3881176,18.3033936 53.3192717,18.6775353 53.2198893,19.0392994 L53.9405506,19.0392994 C53.9405506,19.0392994 55.168673,15.038515 54.7367204,13.2206926 C54.3997085,11.8034551 53.5374689,11.2267705 53.5374689,11.2267705 C53.5374689,11.2267705 53.6185294,9.14901821 52.5131082,6.99981324 C52.27881,6.54352915 50.456614,4.03087225 47.7133262,1.52552939 C46.4596642,0.380036903 45.4736129,0.0227737744 43.7857775,0.0182728216 C39.0054277,0.00533258226 28.0156202,-0.01829742 25.4194628,0.0244616317 C23.6922075,0.0531552058 22.6994937,0.325462851 21.1987637,1.23184222 C21.0499677,1.32129866 20.9727937,1.49458534 21.0161,1.66393369 C21.0594063,1.83328204 21.2104231,1.95143205 21.3830931,1.95143205 L21.4808099,1.95143205 L16.6316143,6.76182536 C16.6316143,6.76182536 14.7161431,6.77138989 14.0776527,6.79783299 C10.9040779,6.9306111 5.19652907,7.40546162 1.73591119,10.078465 C1.2689804,10.4391038 0.963615431,10.9741546 0.88977263,11.5637794 C0.793166259,12.3306292 0.778730824,13.1790588 0.778730824,13.1790588 C0.214083241,13.4789348 -0.0912817255,14.115257 0.0242017527,14.750454 Z M39.8504559,1.95086943 L44.8606622,1.95086943 C45.404767,1.95086943 45.9316604,2.13372064 46.3613922,2.47297996 C47.5345488,3.40017624 48.4534198,4.42301776 49.1374373,5.32433356 C49.2762396,5.50718477 49.3006688,5.75361194 49.2007311,5.96065577 C49.1019039,6.16826221 48.8959214,6.30104032 48.6682857,6.30441604 L39.8510111,6.43044271 L39.8504559,1.95086943 Z M37.1815661,1.95086943 L37.521354,1.95086943 L37.521354,6.46363724 L37.1815661,6.46870081 L37.1815661,1.95086943 Z M19.1628122,6.7246925 L23.9759193,1.95030681 L34.851909,1.95030681 L34.851909,6.5007701 L23.3196622,6.66505488 C23.3257695,6.60710511 23.3340977,6.5508432 23.3340977,6.49120558 C23.3340977,5.70916503 22.7822199,5.0750933 22.1015336,5.0750933 C21.4197369,5.0750933 20.8684144,5.70916503 20.8684144,6.49120558 C20.8684144,6.5626582 20.8778529,6.63129773 20.886181,6.69993726 L19.1628122,6.7246925 Z" id="Shape"></path>
                            </g>
                        </g>
                    </g>
                </g>
            </g>
        </g>
    </g>
</svg>