<?xml version="1.0" encoding="UTF-8"?>
<svg width="73px" height="73px" viewBox="0 0 73 73" version="1.1" xmlns="http://www.w3.org/2000/svg" xmlns:xlink="http://www.w3.org/1999/xlink">
    <!-- Generator: Sketch 52.2 (67145) - http://www.bohemiancoding.com/sketch -->
    <title>Artboard Copy 39</title>
    <desc>Created with Sketch.</desc>
    <g id="Artboard-Copy-39" stroke="none" stroke-width="1" fill="none" fill-rule="evenodd">
        <g id="Group-40" transform="translate(4.000000, 4.000000)">
            <g id="Group-37-Copy" fill="#F2F3F6" stroke="#D0021B" stroke-width="2">
                <g id="Group-38">
                    <g id="Group-35">
                        <circle id="Oval-2" cx="32.5" cy="32.5" r="32.5"></circle>
                    </g>
                </g>
            </g>
            <g id="bus-side-view" transform="translate(33.000000, 32.000000) scale(-1, 1) translate(-33.000000, -32.000000) translate(9.000000, 19.000000)" fill="#A4A4A4" fill-rule="nonzero">
                <g id="Group-29">
                    <path d="M10.2855739,18.0869565 C7.76071001,18.0869565 5.71428571,19.857603 5.71428571,22.0434783 C5.71428571,24.2293535 7.76056962,26 10.2855739,26 C12.8114205,26 14.8571429,24.2294751 14.8571429,22.0434783 C14.8571429,19.8574815 12.8114205,18.0869565 10.2855739,18.0869565 Z M10.2855739,23.7634515 C9.18802673,23.7634515 8.29867378,22.9937531 8.29867378,22.0434783 C8.29867378,21.0929603 9.18802673,20.323505 10.2855739,20.323505 C11.3832615,20.323505 12.2733163,21.0929603 12.2733163,22.0434783 C12.2733163,22.9937531 11.3832615,23.7634515 10.2855739,23.7634515 Z" id="Shape"></path>
                    <path d="M36.571218,18.0869565 C34.0461749,18.0869565 32,19.857603 32,22.0434783 C32,24.2293535 34.0460345,26 36.571218,26 C39.0971034,26 41.1428571,24.2294751 41.1428571,22.0434783 C41.1428571,19.8574815 39.0971034,18.0869565 36.571218,18.0869565 Z M36.571218,23.7634515 C35.473654,23.7634515 34.584147,22.9937531 34.584147,22.0434783 C34.584147,21.0929603 35.473654,20.323505 36.571218,20.323505 C37.6690628,20.323505 38.5591313,21.0929603 38.5591313,22.0434783 C38.5591313,22.9937531 37.6690628,23.7634515 36.571218,23.7634515 Z" id="Shape"></path>
                    <path d="M45.3357224,0 L5.33006132,0 C3.86438006,0 2.42540732,1.12074691 2.13216149,2.49049063 L0.533074615,8.05803836 C0.23982879,9.42778208 0,11.6922683 0,13.0903605 L0,18.93656 C0,20.334391 1.19928092,21.4782609 2.66496218,21.4782609 L5.38224565,21.4782609 C5.38224565,18.7126457 7.74163499,16.4623991 10.6414952,16.4623991 C13.5416293,16.4623991 15.9011556,18.7123845 15.9011556,21.4782609 L31.5643999,21.4782609 C31.5643999,18.7126457 33.9239262,16.4623991 36.8236494,16.4623991 C39.7240574,16.4623991 42.0834467,18.7123845 42.0834467,21.4782609 L45.3350375,21.4782609 C46.8009927,21.4782609 47.9999997,20.3346522 47.9999997,18.93656 L47.9999997,2.54170089 C48.0006845,1.14373927 46.8014036,0 45.3357224,0 Z M11.074584,10.7247602 L4.86396345,10.7247602 L5.84820656,8.50142512 C6.01996287,8.11342905 5.82944211,7.66612313 5.42278781,7.50230257 C5.01572261,7.338482 4.54688541,7.52033067 4.37540303,7.90819611 L3.15502923,10.6650585 C2.33117419,10.4585191 1.8297389,9.72263297 1.99944071,8.85049095 L3.43211298,3.39764375 C3.63276927,2.36677606 4.69631614,1.52324385 5.79561132,1.52324385 L11.074721,1.52324385 L11.074584,10.7247602 Z M22.9335767,10.7247602 L12.673534,10.7247602 L12.673534,1.52324385 L22.9335767,1.52324385 L22.9335767,10.7247602 Z M34.7924324,10.7247602 L24.5325266,10.7247602 L24.5325266,1.52324385 L34.7924324,1.52324385 L34.7924324,10.7247602 Z M46.3663972,8.81848454 C46.3663972,9.86698841 45.4670735,10.7248908 44.3675044,10.7248908 L36.3913823,10.7248908 L36.3913823,1.52337449 L44.3675044,1.52337449 C45.4669365,1.52337449 46.3663972,2.38127692 46.3663972,3.4297808 L46.3663972,8.81848454 Z" id="Shape"></path>
                </g>
            </g>
        </g>
    </g>
</svg>