<?xml version="1.0" encoding="UTF-8"?>
<svg width="62px" height="58px" viewBox="0 0 62 58" version="1.1" xmlns="http://www.w3.org/2000/svg" xmlns:xlink="http://www.w3.org/1999/xlink">
    <!-- Generator: Sketch 52.2 (67145) - http://www.bohemiancoding.com/sketch -->
    <title>Artboard Copy 69</title>
    <desc>Created with Sketch.</desc>
    <defs>
        <path d="M19.9999568,9.60000036e-06 C31.0457216,9.60000036e-06 40.0000448,8.9542848 40.0000448,20 C40.0000448,31.0456736 31.0457216,39.9999904 19.9999568,39.9999904 C8.9543216,39.9999904 -1.6e-06,31.0456736 -1.6e-06,20 C-1.6e-06,8.9542848 8.9543216,9.60000036e-06 19.9999568,9.60000036e-06 Z" id="path-1"></path>
        <filter x="-32.5%" y="-27.5%" width="165.0%" height="165.0%" filterUnits="objectBoundingBox" id="filter-2">
            <feOffset dx="0" dy="2" in="SourceAlpha" result="shadowOffsetOuter1"></feOffset>
            <feGaussianBlur stdDeviation="4" in="shadowOffsetOuter1" result="shadowBlurOuter1"></feGaussianBlur>
            <feColorMatrix values="0 0 0 0 0.505882353   0 0 0 0 0.48627451   0 0 0 0 0.48627451  0 0 0 1 0" type="matrix" in="shadowBlurOuter1"></feColorMatrix>
        </filter>
    </defs>
    <g id="Artboard-Copy-69" stroke="none" stroke-width="1" fill="none" fill-rule="evenodd">
        <g id="Group-41" transform="translate(11.000000, 9.000000)">
            <g id="Group-19">
                <g id="2">
                    <use fill="black" fill-opacity="1" filter="url(#filter-2)" xlink:href="#path-1"></use>
                    <use fill="#8CC153" fill-rule="evenodd" xlink:href="#path-1"></use>
                </g>
            </g>
            <g id="Group-39" transform="translate(4.800000, 14.400000)" fill="#FFFFFF" fill-rule="nonzero">
                <path d="M23.2,10.0004716 C23.2,10.1199483 23.2097473,10.2369098 23.22484,10.3522991 C23.398091,11.7322553 24.5734307,12.8 26,12.8 C27.4658731,12.8 28.6663672,11.6731458 28.7880517,10.2391107 C28.7946547,10.1598787 28.8,10.0806468 28.8,9.99984279 C28.8,8.45324799 27.5469961,7.2 26,7.2 C24.4539472,7.20094324 23.2,8.45419123 23.2,10.0004716 Z M27.7378551,9.76277581 L26.9332285,9.76277581 C26.910904,9.67505474 26.8760022,9.59267868 26.8316676,9.51659087 L27.4029871,8.94530346 C27.5793824,9.17954073 27.6963504,9.45779574 27.7378551,9.76277581 Z M27.4023582,11.0647577 L26.8282089,10.4900118 C26.8728579,10.4145528 26.9093318,10.334692 26.9322852,10.2475998 L27.7369118,10.2475998 C27.6941494,10.5506934 27.5793824,10.8314637 27.4023582,11.0647577 Z M26.24274,10.9317613 C26.3288939,10.909438 26.4106457,10.8764247 26.4854801,10.8327214 L27.054913,11.4024367 C26.8219203,11.5788221 26.5458506,11.6973556 26.24274,11.738858 L26.24274,10.9317613 Z M26.24274,8.26334288 C26.5483661,8.30578856 26.8263223,8.42369322 27.0608871,8.60227949 L26.4905109,9.17230925 C26.41379,9.12703386 26.3314093,9.09213407 26.2430545,9.06918197 L26.2430545,8.26334288 L26.24274,8.26334288 Z M24.5976418,8.94498905 L25.1686468,9.51627646 C25.1239978,9.59236427 25.0894104,9.67474033 25.0677148,9.7624614 L24.2624593,9.7624614 C24.3039641,9.45779574 24.4209321,9.17954073 24.5976418,8.94498905 Z M25.7578888,9.06949638 C25.669534,9.09244849 25.5871533,9.12766268 25.5104323,9.17262366 L24.9403706,8.6025939 C25.1749354,8.42463646 25.4532061,8.30673179 25.7585177,8.26428612 L25.7578888,9.06949638 Z M24.9454015,11.4024367 L25.5148344,10.8330358 C25.5893543,10.8773679 25.6720494,10.9091236 25.7575744,10.9314469 L25.7575744,11.7391724 C25.4547782,11.6979844 25.1783942,11.5788221 24.9454015,11.4024367 Z M24.259315,10.2479142 L25.0702302,10.2479142 C25.0931836,10.3340632 25.1271421,10.4158105 25.1711623,10.4906406 L24.5992139,11.0628713 C24.4221898,10.8295772 24.3023919,10.5510078 24.259315,10.2479142 Z" id="Shape"></path>
                <path d="M3.2,10.0004716 C3.2,10.1199483 3.2094329,10.2369098 3.22483998,10.3522991 C3.39809096,11.7322553 4.57343066,12.8 5.99968557,12.8 C7.46555867,12.8 8.66605278,11.6731458 8.78773723,10.2391107 C8.79434026,10.1598787 8.8,10.0806468 8.8,9.99984279 C8.8,8.45324799 7.54699607,7.2 5.99968557,7.2 C4.45363279,7.20094324 3.2,8.45419123 3.2,10.0004716 Z M7.73816957,9.76277581 L6.93322852,9.76277581 C6.91090399,9.67505474 6.87568782,9.59267868 6.8316676,9.51659087 L7.40298709,8.94530346 C7.5796968,9.17954073 7.69635036,9.45779574 7.73816957,9.76277581 Z M7.40267266,11.0647577 L6.8285233,10.4900118 C6.87317238,10.4145528 6.90964627,10.334692 6.93259966,10.2475998 L7.73722628,10.2475998 C7.69414935,10.5506934 7.5796968,10.8314637 7.40267266,11.0647577 Z M6.24274003,10.9317613 C6.32889388,10.909438 6.4106457,10.8764247 6.48548007,10.8327214 L7.05491297,11.4024367 C6.82192027,11.5788221 6.54585065,11.6973556 6.24274003,11.738858 L6.24274003,10.9317613 Z M6.24274003,8.26334288 C6.54805166,8.30578856 6.82632229,8.42369322 7.06057271,8.60227949 L6.49051095,9.17230925 C6.41379001,9.12703386 6.33140932,9.09213407 6.24305446,9.06918197 L6.24305446,8.26334288 L6.24274003,8.26334288 Z M4.59764177,8.94498905 L5.16896126,9.51627646 C5.12431218,9.59236427 5.08972487,9.67474033 5.06771477,9.7624614 L4.26277372,9.7624614 C4.30396407,9.45779574 4.42093206,9.17954073 4.59764177,8.94498905 Z M5.75788883,9.06949638 C5.66953397,9.09244849 5.58715328,9.12766268 5.51043234,9.17262366 L4.94005615,8.60227949 C5.17430657,8.42432205 5.45289163,8.30641738 5.75820326,8.2639717 L5.75788883,9.06949638 Z M4.94540146,11.4024367 L5.51451993,10.8330358 C5.5893543,10.8773679 5.67173498,10.9091236 5.7575744,10.9314469 L5.7575744,11.7391724 C5.45446378,11.6979844 5.17839416,11.5788221 4.94540146,11.4024367 Z M4.25962942,10.2479142 L5.07054464,10.2479142 C5.0931836,10.3340632 5.12745649,10.4158105 5.1714767,10.4906406 L4.59952835,11.0628713 C4.42250421,10.8295772 4.30239191,10.5510078 4.25962942,10.2479142 Z" id="Shape"></path>
                <path d="M0.0134187395,8.05726714 L0.325258055,9.74109678 C0.395752827,10.1221789 0.729140763,10.3996927 1.11732376,10.3996927 L2.69191221,10.3996927 C2.64912281,10.2454159 2.61402934,10.0874512 2.59371207,9.92487669 C2.57401048,9.77121456 2.56415968,9.63138202 2.56415968,9.49892526 C2.56415968,7.63438896 4.08395307,6.1174364 5.95098708,6.1174364 C7.81863676,6.1174364 9.33843015,7.63438896 9.33843015,9.49892526 C9.33843015,9.5957324 9.33196556,9.69131025 9.32396179,9.78719542 C9.30610722,9.99771254 9.26793538,10.2020832 9.21283248,10.3993854 L22.9873261,10.3993854 C22.9442289,10.2451086 22.9094432,10.0874512 22.8888181,9.92518401 C22.8691165,9.77090723 22.8595736,9.63168934 22.8595736,9.49892526 C22.8595736,7.63469628 24.3790591,6.1174364 26.246401,6.1174364 C28.1137428,6.1174364 29.6335362,7.63469628 29.6335362,9.49892526 C29.6335362,9.59542508 29.6270716,9.69131025 29.6193757,9.78719542 C29.6012133,9.99801986 29.5630414,10.2023905 29.5079385,10.4 L29.9075115,10.4 C29.9075115,10.4 30.5884479,8.21461717 30.3489504,7.22165247 C30.1620931,6.44750265 29.6840215,6.13249529 29.6840215,6.13249529 C29.6840215,6.13249529 29.7289658,4.99754678 29.1160615,3.8235681 C28.9861541,3.57432812 27.9758316,2.20181796 26.4548069,0.833303021 C25.75971,0.207590821 25.2129907,0.0124399143 24.2771649,0.00998132025 C21.6266847,0.0029128622 15.5333506,-0.00999475684 14.0939028,0.0133618871 C13.1362205,0.0290354245 12.5858072,0.177780368 11.7537226,0.672879755 C11.6712222,0.721744313 11.6284328,0.816400186 11.6524441,0.908904789 C11.6764554,1.00140939 11.7601872,1.06594749 11.8559246,1.06594749 L11.910104,1.06594749 L9.22145193,3.69356994 C9.22145193,3.69356994 8.1594128,3.69879445 7.80539975,3.71323869 C6.04580101,3.78576721 2.88123223,4.04514889 0.962481534,5.50524646 C0.703590256,5.70224132 0.53427967,5.99450669 0.493337292,6.31658252 C0.439773579,6.73546549 0.431769806,7.19891048 0.431769806,7.19891048 C0.11869914,7.36271431 -0.0506114458,7.71029805 0.0134187395,8.05726714 Z M22.0952132,1.06564016 L24.8731382,1.06564016 C25.1748189,1.06564016 25.4669566,1.16552055 25.7052228,1.35083708 C26.3556832,1.85730746 26.8651542,2.41602297 27.2444099,2.90835644 C27.3213693,3.00823683 27.3349141,3.14284486 27.2795034,3.25594018 C27.2247083,3.36934284 27.1105006,3.44187136 26.9842873,3.44371531 L22.0955211,3.51255594 L22.0952132,1.06564016 Z M20.6154387,1.06564016 L20.8038352,1.06564016 L20.8038352,3.53068808 L20.6154387,3.53345399 L20.6154387,1.06564016 Z M10.6248828,3.67328653 L13.2935254,1.06533284 L19.3237528,1.06533284 L19.3237528,3.55097148 L12.9296616,3.64071016 C12.9330478,3.60905576 12.9376654,3.57832334 12.9376654,3.54574696 C12.9376654,3.11856624 12.631675,2.7722118 12.2542663,2.7722118 C11.8762419,2.7722118 11.5705594,3.11856624 11.5705594,3.54574696 C11.5705594,3.58477715 11.5757926,3.62227071 11.5804101,3.65976427 L10.6248828,3.67328653 Z" id="Shape"></path>
            </g>
        </g>
    </g>
</svg>