<?xml version="1.0" encoding="UTF-8"?>
<svg width="41px" height="34px" viewBox="0 0 41 34" version="1.1" xmlns="http://www.w3.org/2000/svg" xmlns:xlink="http://www.w3.org/1999/xlink">
    <!-- Generator: Sketch 52.2 (67145) - http://www.bohemiancoding.com/sketch -->
    <title>Artboard Copy 25</title>
    <desc>Created with Sketch.</desc>
    <g id="Artboard-Copy-25" stroke="none" stroke-width="1" fill="none" fill-rule="evenodd">
        <g id="four-grid-layout-design-interface-symbol" transform="translate(5.000000, 7.000000)" fill="#A4A4A4" fill-rule="nonzero">
            <rect id="Rectangle-path" x="0" y="0" width="9.43478261" height="9.48387097" rx="4.7173913"></rect>
            <path d="M15.5,0 L15.5,0 C18.1053433,-4.78593796e-16 20.2173913,2.11204803 20.2173913,4.7173913 L20.2173913,4.76647966 C20.2173913,7.37182294 18.1053433,9.48387097 15.5,9.48387097 L15.5,9.48387097 C12.8946567,9.48387097 10.7826087,7.37182294 10.7826087,4.76647966 L10.7826087,4.7173913 C10.7826087,2.11204803 12.8946567,4.78593796e-16 15.5,0 Z" id="Rectangle-path"></path>
            <path d="M26.2826087,0 L26.2826087,0 C28.887952,-4.78593796e-16 31,2.11204803 31,4.7173913 L31,4.76647966 C31,7.37182294 28.887952,9.48387097 26.2826087,9.48387097 L26.2826087,9.48387097 C23.6772654,9.48387097 21.5652174,7.37182294 21.5652174,4.76647966 L21.5652174,4.7173913 C21.5652174,2.11204803 23.6772654,4.78593796e-16 26.2826087,0 Z" id="Rectangle-path"></path>
            <path d="M4.7173913,11.516129 L4.7173913,11.516129 C7.32273458,11.516129 9.43478261,13.6281771 9.43478261,16.2335203 L9.43478261,16.2826087 C9.43478261,18.887952 7.32273458,21 4.7173913,21 L4.7173913,21 C2.11204803,21 -5.69115889e-16,18.887952 -8.8817842e-16,16.2826087 L0,16.2335203 C-3.1906253e-16,13.6281771 2.11204803,11.516129 4.7173913,11.516129 Z" id="Rectangle-path"></path>
            <path d="M15.5,11.516129 L15.5,11.516129 C18.1053433,11.516129 20.2173913,13.6281771 20.2173913,16.2335203 L20.2173913,16.2826087 C20.2173913,18.887952 18.1053433,21 15.5,21 L15.5,21 C12.8946567,21 10.7826087,18.887952 10.7826087,16.2826087 L10.7826087,16.2335203 C10.7826087,13.6281771 12.8946567,11.516129 15.5,11.516129 Z" id="Rectangle-path"></path>
            <path d="M26.2826087,11.516129 L26.2826087,11.516129 C28.887952,11.516129 31,13.6281771 31,16.2335203 L31,16.2826087 C31,18.887952 28.887952,21 26.2826087,21 L26.2826087,21 C23.6772654,21 21.5652174,18.887952 21.5652174,16.2826087 L21.5652174,16.2335203 C21.5652174,13.6281771 23.6772654,11.516129 26.2826087,11.516129 Z" id="Rectangle-path"></path>
        </g>
    </g>
</svg>