<svg id="history-clock-button" xmlns="http://www.w3.org/2000/svg" viewBox="0 0 16 15">
  <defs>
    <style>
      .cls-1 {
        fill: #a4a4a4;
        opacity: 0.9;
      }
    </style>
  </defs>
  <path id="Shape" class="cls-1" d="M8.4,15A7.632,7.632,0,0,1,1.04,9.473H2.72A6.066,6.066,0,0,0,8.4,13.421a5.968,5.968,0,0,0,6-5.921A6.046,6.046,0,0,0,2.96,4.9L5.2,7.106H0V1.974L1.84,3.79A7.5,7.5,0,0,1,8.4,0,7.592,7.592,0,0,1,13.76,2.211,7.392,7.392,0,0,1,16,7.5,7.56,7.56,0,0,1,8.4,15Zm2.561-4.816h0L7.2,7.974V3.947H8.4V7.263l3.2,1.895-.639,1.026Z"/>
</svg>
